(module BATTERY-CHARGER-LI-PROT (layer F.Cu) (tedit 0)
  (descr "<b>Protected Lithium Battery 5V Charger</b> with micro-USB connector")
  (fp_text reference BAT-CH (at -1.27 -3.81 -180) (layer F.SilkS)
    (effects (font (size 1.2065 1.2065) (thickness 0.09652)) (justify bottom))
  )
  (fp_text value BATTERY-CHARGER-LI-PROT (at 0 10.16) (layer F.Fab) hide
    (effects (font (size 1.2065 1.2065) (thickness 0.1016)) (justify right top))
  )
  (fp_line (start -13.97 -8.636) (end 13.97 -8.636) (layer F.SilkS) (width 0.127))
  (fp_line (start 13.97 8.636) (end -13.97 8.636) (layer F.SilkS) (width 0.127))
  (fp_text user IN+ (at -9.525 -6.985) (layer F.SilkS)
    (effects (font (size 1.2065 1.2065) (thickness 0.1016)) (justify left))
  )
  (fp_text user IN- (at -9.525 6.985) (layer F.SilkS)
    (effects (font (size 1.2065 1.2065) (thickness 0.1016)) (justify left))
  )
  (fp_text user B+ (at 8.255 -3.81) (layer F.SilkS)
    (effects (font (size 1.2065 1.2065) (thickness 0.1016)) (justify right))
  )
  (fp_text user B- (at 8.255 3.81) (layer F.SilkS)
    (effects (font (size 1.2065 1.2065) (thickness 0.1016)) (justify right))
  )
  (fp_line (start -13.97 -8.636) (end -13.97 -4.064) (layer F.SilkS) (width 0.127))
  (fp_line (start -13.97 8.636) (end -13.97 4.064) (layer F.SilkS) (width 0.127))
  (fp_line (start -14.605 -4.064) (end -13.97 -4.064) (layer F.SilkS) (width 0.127))
  (fp_line (start -14.605 4.064) (end -13.97 4.064) (layer F.SilkS) (width 0.127))
  (fp_line (start -13.97 4.064) (end -8.128 4.064) (layer F.SilkS) (width 0.127))
  (fp_line (start -14.605 -4.064) (end -14.605 4.064) (layer F.SilkS) (width 0.127))
  (fp_line (start -8.128 -4.064) (end -8.128 4.064) (layer F.SilkS) (width 0.127))
  (fp_text user USB (at -11.43 0) (layer F.SilkS)
    (effects (font (size 1.6891 1.6891) (thickness 0.14224)))
  )
  (fp_line (start 13.97 -8.636) (end 13.97 -6.35) (layer F.SilkS) (width 0.127))
  (fp_line (start 13.97 -6.35) (end 12.7 -6.35) (layer F.SilkS) (width 0.127))
  (fp_line (start 12.7 -6.35) (end 12.7 6.35) (layer F.SilkS) (width 0.127))
  (fp_line (start 12.7 6.35) (end 13.97 6.35) (layer F.SilkS) (width 0.127))
  (fp_line (start 13.97 6.35) (end 13.97 8.636) (layer F.SilkS) (width 0.127))
  (fp_line (start -13.97 -4.064) (end -8.128 -4.064) (layer F.SilkS) (width 0.127))
  (fp_text user OUT+ (at 8.255 -6.985) (layer F.SilkS)
    (effects (font (size 1.2065 1.2065) (thickness 0.1016)) (justify right))
  )
  (fp_text user OUT- (at 8.255 6.985) (layer F.SilkS)
    (effects (font (size 1.2065 1.2065) (thickness 0.1016)) (justify right))
  )
  (pad IN+ thru_hole rect (at -12.065 -6.985) (size 2.5 2.5) (drill 1.2) (layers *.Cu *.Mask)
    (solder_mask_margin 0.1016))
  (pad IN- thru_hole rect (at -12.065 6.985) (size 2.5 2.5) (drill 1.2) (layers *.Cu *.Mask)
    (solder_mask_margin 0.1016))
  (pad B+ thru_hole rect (at 10.795 -3.81) (size 2.5 2.5) (drill 1.2) (layers *.Cu *.Mask)
    (solder_mask_margin 0.1016))
  (pad B- thru_hole rect (at 10.795 3.81) (size 2.5 2.5) (drill 1.2) (layers *.Cu *.Mask)
    (solder_mask_margin 0.1016))
  (pad OUT+ thru_hole rect (at 10.795 -6.985) (size 2.5 2.5) (drill 1.2) (layers *.Cu *.Mask)
    (solder_mask_margin 0.1016))
  (pad OUT- thru_hole rect (at 10.795 6.985) (size 2.5 2.5) (drill 1.2) (layers *.Cu *.Mask)
    (solder_mask_margin 0.1016))
)
