EESchema Schematic File Version 4
EELAYER 30 0
EELAYER END
$Descr A4 11693 8268
encoding utf-8
Sheet 1 1
Title ""
Date ""
Rev ""
Comp ""
Comment1 ""
Comment2 ""
Comment3 ""
Comment4 ""
$EndDescr
Wire Wire Line
	4200 3600 4100 3600
Wire Wire Line
	4100 3600 3700 3600
Wire Wire Line
	3700 3600 3700 3500
Wire Wire Line
	4200 3900 4100 3900
Wire Wire Line
	4100 3900 4100 3600
Connection ~ 4100 3600
Text Label 3800 3600 0    70   ~ 0
RESET
Wire Wire Line
	1600 4600 1600 4300
Text Label 1600 4600 1    70   ~ 0
RESET
Wire Wire Line
	3400 3500 3400 3800
Wire Wire Line
	3400 3800 4200 3800
Wire Wire Line
	8400 5600 8500 5600
Wire Wire Line
	8500 5600 8500 5100
Text Label 8400 5600 0    10   ~ 0
VCC
Wire Wire Line
	8550 3950 8650 3950
Text Label 8550 3950 0    10   ~ 0
VCC
Wire Wire Line
	7000 4200 6900 4200
Text Label 7000 4200 0    10   ~ 0
VCC
Wire Wire Line
	6400 3500 6400 3700
Wire Wire Line
	6400 3700 6400 3800
Wire Wire Line
	6400 3800 6400 4100
Wire Wire Line
	6500 3700 6400 3700
Connection ~ 6400 3800
Connection ~ 6400 3700
Text Label 6400 3500 0    10   ~ 0
VCC
Wire Wire Line
	3400 3000 3700 3000
Wire Wire Line
	3700 3000 3700 3100
Wire Wire Line
	3400 3000 3400 3100
Wire Wire Line
	3400 3000 3400 2900
Connection ~ 3400 3000
Text Label 3400 3000 0    10   ~ 0
VCC
Wire Wire Line
	4100 4300 4200 4300
Text Label 4100 4300 0    10   ~ 0
VCC
Wire Wire Line
	6800 2000 7000 2000
Text Label 6800 2000 0    10   ~ 0
VCC
Wire Wire Line
	9800 2100 9900 2100
Text Label 9800 2100 0    10   ~ 0
VCC
Wire Wire Line
	9800 2800 9900 2800
Text Label 9800 2800 0    10   ~ 0
VCC
Wire Wire Line
	9800 3500 9900 3500
Text Label 9800 3500 0    10   ~ 0
VCC
Wire Wire Line
	9800 4300 9900 4300
Text Label 9800 4300 0    10   ~ 0
VCC
Wire Wire Line
	8400 6200 8600 6200
Wire Wire Line
	8600 6200 8600 6300
Text Label 8400 6200 0    10   ~ 0
GND
Wire Wire Line
	8450 4250 8450 4050
Wire Wire Line
	8450 4050 8650 4050
Text Label 8450 4250 0    10   ~ 0
GND
Wire Wire Line
	5900 4600 5900 4700
Wire Wire Line
	5900 4700 5900 4800
Wire Wire Line
	5400 4300 5700 4300
Wire Wire Line
	5700 4300 5700 4700
Wire Wire Line
	5700 4700 5900 4700
Connection ~ 5900 4700
Text Label 5900 4600 0    10   ~ 0
GND
Wire Wire Line
	6600 4300 7000 4300
Text Label 6600 4300 0    10   ~ 0
GND
Wire Wire Line
	6800 2800 6900 2800
Wire Wire Line
	6900 2800 7000 2800
Wire Wire Line
	7000 2600 6900 2600
Wire Wire Line
	6900 2600 6900 2800
Wire Wire Line
	7000 3000 6900 3000
Wire Wire Line
	6900 3000 6900 2800
Connection ~ 6900 2800
Text Label 6800 2800 0    10   ~ 0
GND
Wire Wire Line
	6700 2200 7000 2200
Text Label 6700 2200 0    10   ~ 0
GND
Wire Wire Line
	1600 5600 1600 5800
Text Label 1600 5600 0    10   ~ 0
GND
Wire Wire Line
	2300 4400 2300 4500
Text Label 2300 4400 0    10   ~ 0
GND
Wire Wire Line
	4400 6000 4400 6200
Text Label 4400 6000 0    10   ~ 0
GND
Wire Wire Line
	9500 2200 9900 2200
Text Label 9500 2200 0    10   ~ 0
GND
Wire Wire Line
	9500 2900 9900 2900
Text Label 9500 2900 0    10   ~ 0
GND
Wire Wire Line
	9500 3600 9900 3600
Text Label 9500 3600 0    10   ~ 0
GND
Wire Wire Line
	9500 4400 9900 4400
Text Label 9500 4400 0    10   ~ 0
GND
Wire Wire Line
	4600 3100 4600 3000
Text Label 4600 3100 0    10   ~ 0
GND
Wire Wire Line
	7000 4500 6800 4500
Text Label 6800 4500 0    70   ~ 0
SDA
Wire Wire Line
	5400 4100 6000 4100
Text Label 5500 4100 0    70   ~ 0
SDA
Wire Wire Line
	6800 4400 7000 4400
Text Label 6800 4400 0    70   ~ 0
SCL
Wire Wire Line
	6000 3800 6000 4000
Wire Wire Line
	6000 4000 5400 4000
Text Label 5500 4000 0    70   ~ 0
SCL
Wire Wire Line
	2300 3400 2300 3200
Text Label 2300 3400 1    70   ~ 0
SCL
Wire Wire Line
	5400 4200 5900 4200
Wire Wire Line
	5400 3600 5700 3600
Text Label 5500 3600 0    70   ~ 0
TX
Wire Wire Line
	8450 3750 8650 3750
Text Label 8450 3750 0    70   ~ 0
TX
Wire Wire Line
	5400 3800 5900 3800
Wire Wire Line
	5900 3800 5900 3500
Wire Wire Line
	5900 3500 6000 3500
Text Label 5500 3800 0    70   ~ 0
CLEAR
Wire Wire Line
	4400 5000 4400 4800
Text Label 4400 5000 1    70   ~ 0
CLEAR
Wire Wire Line
	8450 3850 8650 3850
Text Label 8450 3850 0    70   ~ 0
RX
Wire Wire Line
	5400 3700 5700 3700
Text Label 5500 3700 0    70   ~ 0
RX
Wire Wire Line
	7000 5600 7100 5600
Wire Wire Line
	7000 5800 7000 6100
Wire Wire Line
	7000 6100 7100 6200
Wire Wire Line
	8400 5800 8500 5800
Wire Wire Line
	8500 5800 8700 6000
Wire Wire Line
	8700 6000 8900 6000
Wire Wire Line
	8400 6000 8500 6000
Wire Wire Line
	8500 6000 8700 5800
Wire Wire Line
	8700 5800 8900 5800
Wire Wire Line
	7000 2500 6700 2500
Text Label 6700 2500 0    70   ~ 0
S1
Wire Wire Line
	4200 4100 4000 4100
Text Label 4000 4100 0    70   ~ 0
S1
Wire Wire Line
	7000 2400 6700 2400
Text Label 6700 2400 0    70   ~ 0
S0
Wire Wire Line
	4200 4000 4000 4000
Text Label 4000 4000 0    70   ~ 0
S0
Wire Wire Line
	8400 2100 8600 2100
Text Label 8500 2100 0    70   ~ 0
AN_IN1
Wire Wire Line
	9900 2000 9400 2000
Text Label 9400 2000 0    70   ~ 0
AN_IN1
Wire Wire Line
	8400 2200 8600 2200
Text Label 8500 2200 0    70   ~ 0
AN_IN2
Wire Wire Line
	9900 2700 9400 2700
Text Label 9400 2700 0    70   ~ 0
AN_IN2
Wire Wire Line
	8400 2300 8600 2300
Text Label 8500 2300 0    70   ~ 0
AN_IN3
Wire Wire Line
	9900 3400 9400 3400
Text Label 9400 3400 0    70   ~ 0
AN_IN3
Wire Wire Line
	8400 2400 8600 2400
Text Label 8500 2400 0    70   ~ 0
AN_IN4
Wire Wire Line
	9900 4200 9400 4200
Text Label 9400 4200 0    70   ~ 0
AN_IN4
Wire Wire Line
	3500 3700 4200 3700
Text Label 3500 3700 0    70   ~ 0
ANALOG1V
Wire Wire Line
	4600 2400 4600 2500
Wire Wire Line
	4600 2500 4600 2600
Wire Wire Line
	5100 2500 4600 2500
Connection ~ 4600 2500
Text Label 4700 2500 0    70   ~ 0
ANALOG1V
Wire Wire Line
	8400 2000 8900 2000
Text Label 8500 2000 0    70   ~ 0
ANALOG3V
Wire Wire Line
	4600 1900 4600 2000
Wire Wire Line
	4300 1900 4600 1900
Text Label 4300 1900 0    70   ~ 0
ANALOG3V
$Comp
L esp8266-bme280-deepsleep-eagle-import:ESP8266_ESP-12 ESP1
U 1 1 C280D04E
P 5100 3900
F 0 "ESP1" H 4400 3300 42  0000 L BNN
F 1 "ESP8266_ESP-12" H 5100 3900 50  0001 C CNN
F 2 "esp8266-bme280-deepsleep:ESP8266-ESP12" H 5100 3900 50  0001 C CNN
F 3 "" H 5100 3900 50  0001 C CNN
	1    5100 3900
	1    0    0    -1  
$EndComp
$Comp
L esp8266-bme280-deepsleep-eagle-import:R-EU_0204_7 R1
U 1 1 0B6559E8
P 3700 3300
F 0 "R1" H 3550 3359 59  0000 L BNN
F 1 "10k" H 3550 3170 59  0000 L BNN
F 2 "esp8266-bme280-deepsleep:0204_7" H 3700 3300 50  0001 C CNN
F 3 "" H 3700 3300 50  0001 C CNN
	1    3700 3300
	0    -1   -1   0   
$EndComp
$Comp
L esp8266-bme280-deepsleep-eagle-import:R-EU_0204_7 R2
U 1 1 96F6590E
P 3400 3300
F 0 "R2" H 3250 3359 59  0000 L BNN
F 1 "10k" H 3250 3170 59  0000 L BNN
F 2 "esp8266-bme280-deepsleep:0204_7" H 3400 3300 50  0001 C CNN
F 3 "" H 3400 3300 50  0001 C CNN
	1    3400 3300
	0    -1   -1   0   
$EndComp
$Comp
L esp8266-bme280-deepsleep-eagle-import:R-EU_0204_7 R3
U 1 1 33D130BE
P 6200 3800
F 0 "R3" H 6050 3859 59  0000 L BNN
F 1 "10k" H 6050 3670 59  0000 L BNN
F 2 "esp8266-bme280-deepsleep:0204_7" H 6200 3800 50  0001 C CNN
F 3 "" H 6200 3800 50  0001 C CNN
	1    6200 3800
	-1   0    0    1   
$EndComp
$Comp
L esp8266-bme280-deepsleep-eagle-import:R-EU_0204_7 R4
U 1 1 304D48AD
P 6200 4100
F 0 "R4" H 6050 4159 59  0000 L BNN
F 1 "10k" H 6050 3970 59  0000 L BNN
F 2 "esp8266-bme280-deepsleep:0204_7" H 6200 4100 50  0001 C CNN
F 3 "" H 6200 4100 50  0001 C CNN
	1    6200 4100
	1    0    0    -1  
$EndComp
$Comp
L esp8266-bme280-deepsleep-eagle-import:R-EU_0204_7 R5
U 1 1 D5B7A617
P 5900 4400
F 0 "R5" H 5750 4459 59  0000 L BNN
F 1 "10k" H 5750 4270 59  0000 L BNN
F 2 "esp8266-bme280-deepsleep:0204_7" H 5900 4400 50  0001 C CNN
F 3 "" H 5900 4400 50  0001 C CNN
	1    5900 4400
	0    -1   -1   0   
$EndComp
$Comp
L esp8266-bme280-deepsleep-eagle-import:VCC #SUPPLY01
U 1 1 9BB82FD5
P 3400 2800
F 0 "#SUPPLY01" H 3400 2800 50  0001 C CNN
F 1 "VCC" H 3325 2925 59  0000 L BNN
F 2 "" H 3400 2800 50  0001 C CNN
F 3 "" H 3400 2800 50  0001 C CNN
	1    3400 2800
	1    0    0    -1  
$EndComp
$Comp
L esp8266-bme280-deepsleep-eagle-import:GND #GND01
U 1 1 A7315E89
P 5900 4900
F 0 "#GND01" H 5900 4900 50  0001 C CNN
F 1 "GND" H 5800 4800 59  0000 L BNN
F 2 "" H 5900 4900 50  0001 C CNN
F 3 "" H 5900 4900 50  0001 C CNN
	1    5900 4900
	1    0    0    -1  
$EndComp
$Comp
L esp8266-bme280-deepsleep-eagle-import:BATTERY-CHARGER-LI-PROT BAT-CH1
U 1 1 F4FC9FE7
P 7800 5900
F 0 "BAT-CH1" H 7300 6350 59  0000 L BNN
F 1 "BATTERY-CHARGER-LI-PROT" H 7300 6400 59  0001 L BNN
F 2 "esp8266-bme280-deepsleep:BATTERY-CHARGER-LI-PROT" H 7800 5900 50  0001 C CNN
F 3 "" H 7800 5900 50  0001 C CNN
	1    7800 5900
	1    0    0    -1  
$EndComp
$Comp
L esp8266-bme280-deepsleep-eagle-import:TEMP-HUM-PRES-BME280 BME280
U 1 1 D91E5F31
P 7600 4400
F 0 "BME280" H 7200 4850 59  0000 L BNN
F 1 "TEMP-HUM-PRES-BME280" H 7200 4900 59  0001 L BNN
F 2 "esp8266-bme280-deepsleep:TEMP-HUM-PRES-BME280" H 7600 4400 50  0001 C CNN
F 3 "" H 7600 4400 50  0001 C CNN
	1    7600 4400
	1    0    0    -1  
$EndComp
$Comp
L esp8266-bme280-deepsleep-eagle-import:VCC #SUPPLY02
U 1 1 7668A807
P 8500 5000
F 0 "#SUPPLY02" H 8500 5000 50  0001 C CNN
F 1 "VCC" H 8425 5125 59  0000 L BNN
F 2 "" H 8500 5000 50  0001 C CNN
F 3 "" H 8500 5000 50  0001 C CNN
	1    8500 5000
	1    0    0    -1  
$EndComp
$Comp
L esp8266-bme280-deepsleep-eagle-import:GND #GND02
U 1 1 C92C8F3B
P 8600 6400
F 0 "#GND02" H 8600 6400 50  0001 C CNN
F 1 "GND" H 8500 6300 59  0000 L BNN
F 2 "" H 8600 6400 50  0001 C CNN
F 3 "" H 8600 6400 50  0001 C CNN
	1    8600 6400
	1    0    0    -1  
$EndComp
$Comp
L esp8266-bme280-deepsleep-eagle-import:VCC #SUPPLY03
U 1 1 9BCD8B80
P 8450 3950
F 0 "#SUPPLY03" H 8450 3950 50  0001 C CNN
F 1 "VCC" H 8375 4075 59  0000 L BNN
F 2 "" H 8450 3950 50  0001 C CNN
F 3 "" H 8450 3950 50  0001 C CNN
	1    8450 3950
	0    -1   -1   0   
$EndComp
$Comp
L esp8266-bme280-deepsleep-eagle-import:GND #GND03
U 1 1 E2B99DEF
P 8350 4250
F 0 "#GND03" H 8350 4250 50  0001 C CNN
F 1 "GND" H 8250 4150 59  0000 L BNN
F 2 "" H 8350 4250 50  0001 C CNN
F 3 "" H 8350 4250 50  0001 C CNN
	1    8350 4250
	0    1    1    0   
$EndComp
$Comp
L esp8266-bme280-deepsleep-eagle-import:MA04-1 PROGRAM1
U 1 1 AD75EE9F
P 8950 3950
F 0 "PROGRAM1" H 8900 4180 59  0000 L BNN
F 1 "MA04-1" H 8900 3550 59  0000 L BNN
F 2 "esp8266-bme280-deepsleep:MA04-1" H 8950 3950 50  0001 C CNN
F 3 "" H 8950 3950 50  0001 C CNN
	1    8950 3950
	-1   0    0    1   
$EndComp
$Comp
L esp8266-bme280-deepsleep-eagle-import:R-EU_0204_7 R6
U 1 1 390EAB98
P 6200 3500
F 0 "R6" H 6050 3559 59  0000 L BNN
F 1 "10k" H 6050 3370 59  0000 L BNN
F 2 "esp8266-bme280-deepsleep:0204_7" H 6200 3500 50  0001 C CNN
F 3 "" H 6200 3500 50  0001 C CNN
	1    6200 3500
	-1   0    0    1   
$EndComp
$Comp
L esp8266-bme280-deepsleep-eagle-import:VCC #SUPPLY04
U 1 1 0A61E534
P 6800 4200
F 0 "#SUPPLY04" H 6800 4200 50  0001 C CNN
F 1 "VCC" H 6725 4325 59  0000 L BNN
F 2 "" H 6800 4200 50  0001 C CNN
F 3 "" H 6800 4200 50  0001 C CNN
	1    6800 4200
	0    -1   -1   0   
$EndComp
$Comp
L esp8266-bme280-deepsleep-eagle-import:GND #GND04
U 1 1 6AE2E73F
P 6500 4300
F 0 "#GND04" H 6500 4300 50  0001 C CNN
F 1 "GND" H 6400 4200 59  0000 L BNN
F 2 "" H 6500 4300 50  0001 C CNN
F 3 "" H 6500 4300 50  0001 C CNN
	1    6500 4300
	0    1    1    0   
$EndComp
$Comp
L esp8266-bme280-deepsleep-eagle-import:GND #GND06
U 1 1 6DBAC010
P 1600 5900
F 0 "#GND06" H 1600 5900 50  0001 C CNN
F 1 "GND" H 1500 5800 59  0000 L BNN
F 2 "" H 1600 5900 50  0001 C CNN
F 3 "" H 1600 5900 50  0001 C CNN
	1    1600 5900
	1    0    0    -1  
$EndComp
$Comp
L esp8266-bme280-deepsleep-eagle-import:VCC #SUPPLY06
U 1 1 137BDED3
P 6600 3700
F 0 "#SUPPLY06" H 6600 3700 50  0001 C CNN
F 1 "VCC" H 6525 3825 59  0000 L BNN
F 2 "" H 6600 3700 50  0001 C CNN
F 3 "" H 6600 3700 50  0001 C CNN
	1    6600 3700
	0    1    1    0   
$EndComp
$Comp
L esp8266-bme280-deepsleep-eagle-import:GND #GND07
U 1 1 2E923FEC
P 4400 6300
F 0 "#GND07" H 4400 6300 50  0001 C CNN
F 1 "GND" H 4300 6200 59  0000 L BNN
F 2 "" H 4400 6300 50  0001 C CNN
F 3 "" H 4400 6300 50  0001 C CNN
	1    4400 6300
	1    0    0    -1  
$EndComp
$Comp
L esp8266-bme280-deepsleep-eagle-import:GND #GND08
U 1 1 D5805D3F
P 2300 4600
F 0 "#GND08" H 2300 4600 50  0001 C CNN
F 1 "GND" H 2200 4500 59  0000 L BNN
F 2 "" H 2300 4600 50  0001 C CNN
F 3 "" H 2300 4600 50  0001 C CNN
	1    2300 4600
	1    0    0    -1  
$EndComp
$Comp
L esp8266-bme280-deepsleep-eagle-import:VCC #SUPPLY07
U 1 1 B162DFB5
P 4000 4300
F 0 "#SUPPLY07" H 4000 4300 50  0001 C CNN
F 1 "VCC" H 3925 4425 59  0000 L BNN
F 2 "" H 4000 4300 50  0001 C CNN
F 3 "" H 4000 4300 50  0001 C CNN
	1    4000 4300
	0    -1   -1   0   
$EndComp
$Comp
L esp8266-bme280-deepsleep-eagle-import:PWR_CONN_KK BAT1
U 1 1 E4F96AD6
P 9100 6000
F 0 "BAT1" H 9050 6035 59  0000 R TNN
F 1 "PWR_CONN_KK" H 8950 5855 59  0001 L BNN
F 2 "esp8266-bme280-deepsleep:PWR_CONN_KK_5MM" H 9100 6000 50  0001 C CNN
F 3 "" H 9100 6000 50  0001 C CNN
	1    9100 6000
	-1   0    0    1   
$EndComp
$Comp
L esp8266-bme280-deepsleep-eagle-import:PWR_CONN_KK BAT1
U 2 1 E4F96ADA
P 9100 5800
F 0 "BAT1" H 9050 5835 59  0000 R TNN
F 1 "PWR_CONN_KK" H 8950 5655 59  0001 L BNN
F 2 "esp8266-bme280-deepsleep:PWR_CONN_KK_5MM" H 9100 5800 50  0001 C CNN
F 3 "" H 9100 5800 50  0001 C CNN
	2    9100 5800
	-1   0    0    1   
$EndComp
$Comp
L esp8266-bme280-deepsleep-eagle-import:PWR_CONN_KK SOLAR1
U 1 1 ACC6F53C
P 6800 5600
F 0 "SOLAR1" H 6750 5635 59  0000 R TNN
F 1 "PWR_CONN_KK" H 6650 5455 59  0001 L BNN
F 2 "esp8266-bme280-deepsleep:PWR_CONN_KK_5MM" H 6800 5600 50  0001 C CNN
F 3 "" H 6800 5600 50  0001 C CNN
	1    6800 5600
	1    0    0    -1  
$EndComp
$Comp
L esp8266-bme280-deepsleep-eagle-import:PWR_CONN_KK SOLAR1
U 2 1 ACC6F530
P 6800 5800
F 0 "SOLAR1" H 6750 5835 59  0000 R TNN
F 1 "PWR_CONN_KK" H 6650 5655 59  0001 L BNN
F 2 "esp8266-bme280-deepsleep:PWR_CONN_KK_5MM" H 6800 5800 50  0001 C CNN
F 3 "" H 6800 5800 50  0001 C CNN
	2    6800 5800
	1    0    0    -1  
$EndComp
$Comp
L esp8266-bme280-deepsleep-eagle-import:74HC4051D,653 74HC4051
U 1 1 FD894D9E
P 7700 2400
F 0 "74HC4051" H 7200 3050 69  0000 L BNN
F 1 "74HC4051D,653" H 7300 1450 69  0001 L BNN
F 2 "esp8266-bme280-deepsleep:SOIC127P600X175-16N" H 7700 2400 50  0001 C CNN
F 3 "" H 7700 2400 50  0001 C CNN
	1    7700 2400
	1    0    0    -1  
$EndComp
$Comp
L esp8266-bme280-deepsleep-eagle-import:GND #GND09
U 1 1 158B4DC7
P 6700 2800
F 0 "#GND09" H 6700 2800 50  0001 C CNN
F 1 "GND" H 6600 2700 59  0000 L BNN
F 2 "" H 6700 2800 50  0001 C CNN
F 3 "" H 6700 2800 50  0001 C CNN
	1    6700 2800
	0    1    1    0   
$EndComp
$Comp
L esp8266-bme280-deepsleep-eagle-import:VCC #SUPPLY08
U 1 1 F137449E
P 6700 2000
F 0 "#SUPPLY08" H 6700 2000 50  0001 C CNN
F 1 "VCC" H 6625 2125 59  0000 L BNN
F 2 "" H 6700 2000 50  0001 C CNN
F 3 "" H 6700 2000 50  0001 C CNN
	1    6700 2000
	0    -1   -1   0   
$EndComp
$Comp
L esp8266-bme280-deepsleep-eagle-import:GND #GND010
U 1 1 EE95B960
P 6600 2200
F 0 "#GND010" H 6600 2200 50  0001 C CNN
F 1 "GND" H 6500 2100 59  0000 L BNN
F 2 "" H 6600 2200 50  0001 C CNN
F 3 "" H 6600 2200 50  0001 C CNN
	1    6600 2200
	0    1    1    0   
$EndComp
$Comp
L esp8266-bme280-deepsleep-eagle-import:SWCH-SMD-1 FLASH1
U 1 1 EE34536C
P 2300 3900
F 0 "FLASH1" H 2150 4150 85  0000 L BNN
F 1 "SWCH-SMD-1" H 2000 3550 85  0001 L BNN
F 2 "esp8266-bme280-deepsleep:SWCH-SMD-1" H 2300 3900 50  0001 C CNN
F 3 "" H 2300 3900 50  0001 C CNN
	1    2300 3900
	0    1    1    0   
$EndComp
$Comp
L esp8266-bme280-deepsleep-eagle-import:SWCH-SMD-1 CLEAR1
U 1 1 9E76F60F
P 4400 5500
F 0 "CLEAR1" H 4099 5700 85  0000 L BNN
F 1 "SWCH-SMD-1" H 4100 5200 85  0000 L BNN
F 2 "esp8266-bme280-deepsleep:SWCH-SMD-1" H 4400 5500 50  0001 C CNN
F 3 "" H 4400 5500 50  0001 C CNN
	1    4400 5500
	0    1    1    0   
$EndComp
$Comp
L esp8266-bme280-deepsleep-eagle-import:SWCH-SMD-1 RESET1
U 1 1 EDEA9B6F
P 1600 5100
F 0 "RESET1" H 1450 5350 85  0000 L BNN
F 1 "SWCH-SMD-1" H 1300 4800 85  0001 L BNN
F 2 "esp8266-bme280-deepsleep:SWCH-SMD-1" H 1600 5100 50  0001 C CNN
F 3 "" H 1600 5100 50  0001 C CNN
	1    1600 5100
	0    1    1    0   
$EndComp
$Comp
L esp8266-bme280-deepsleep-eagle-import:MA03-1 AN1
U 1 1 35AC7E38
P 10200 2100
F 0 "AN1" H 10150 2330 59  0000 L BNN
F 1 "MA03-1" H 10150 1800 59  0000 L BNN
F 2 "esp8266-bme280-deepsleep:MA03-1" H 10200 2100 50  0001 C CNN
F 3 "" H 10200 2100 50  0001 C CNN
	1    10200 2100
	-1   0    0    1   
$EndComp
$Comp
L esp8266-bme280-deepsleep-eagle-import:MA03-1 AN2
U 1 1 4D4CC401
P 10200 2800
F 0 "AN2" H 10150 3030 59  0000 L BNN
F 1 "MA03-1" H 10150 2500 59  0000 L BNN
F 2 "esp8266-bme280-deepsleep:MA03-1" H 10200 2800 50  0001 C CNN
F 3 "" H 10200 2800 50  0001 C CNN
	1    10200 2800
	-1   0    0    1   
$EndComp
$Comp
L esp8266-bme280-deepsleep-eagle-import:MA03-1 AN3
U 1 1 630514A6
P 10200 3500
F 0 "AN3" H 10150 3730 59  0000 L BNN
F 1 "MA03-1" H 10150 3200 59  0000 L BNN
F 2 "esp8266-bme280-deepsleep:MA03-1" H 10200 3500 50  0001 C CNN
F 3 "" H 10200 3500 50  0001 C CNN
	1    10200 3500
	-1   0    0    1   
$EndComp
$Comp
L esp8266-bme280-deepsleep-eagle-import:MA03-1 AN4
U 1 1 718348D6
P 10200 4300
F 0 "AN4" H 10150 4530 59  0000 L BNN
F 1 "MA03-1" H 10150 4000 59  0000 L BNN
F 2 "esp8266-bme280-deepsleep:MA03-1" H 10200 4300 50  0001 C CNN
F 3 "" H 10200 4300 50  0001 C CNN
	1    10200 4300
	-1   0    0    1   
$EndComp
$Comp
L esp8266-bme280-deepsleep-eagle-import:GND #GND011
U 1 1 DE30151E
P 9400 2200
F 0 "#GND011" H 9400 2200 50  0001 C CNN
F 1 "GND" H 9300 2100 59  0000 L BNN
F 2 "" H 9400 2200 50  0001 C CNN
F 3 "" H 9400 2200 50  0001 C CNN
	1    9400 2200
	0    1    1    0   
$EndComp
$Comp
L esp8266-bme280-deepsleep-eagle-import:GND #GND012
U 1 1 E480151F
P 9400 2900
F 0 "#GND012" H 9400 2900 50  0001 C CNN
F 1 "GND" H 9300 2800 59  0000 L BNN
F 2 "" H 9400 2900 50  0001 C CNN
F 3 "" H 9400 2900 50  0001 C CNN
	1    9400 2900
	0    1    1    0   
$EndComp
$Comp
L esp8266-bme280-deepsleep-eagle-import:GND #GND013
U 1 1 78C00C8D
P 9400 3600
F 0 "#GND013" H 9400 3600 50  0001 C CNN
F 1 "GND" H 9300 3500 59  0000 L BNN
F 2 "" H 9400 3600 50  0001 C CNN
F 3 "" H 9400 3600 50  0001 C CNN
	1    9400 3600
	0    1    1    0   
$EndComp
$Comp
L esp8266-bme280-deepsleep-eagle-import:GND #GND014
U 1 1 A1A53D2B
P 9400 4400
F 0 "#GND014" H 9400 4400 50  0001 C CNN
F 1 "GND" H 9300 4300 59  0000 L BNN
F 2 "" H 9400 4400 50  0001 C CNN
F 3 "" H 9400 4400 50  0001 C CNN
	1    9400 4400
	0    1    1    0   
$EndComp
$Comp
L esp8266-bme280-deepsleep-eagle-import:VCC #SUPPLY09
U 1 1 CA6F28B8
P 9700 2100
F 0 "#SUPPLY09" H 9700 2100 50  0001 C CNN
F 1 "VCC" H 9625 2225 59  0000 L BNN
F 2 "" H 9700 2100 50  0001 C CNN
F 3 "" H 9700 2100 50  0001 C CNN
	1    9700 2100
	0    -1   -1   0   
$EndComp
$Comp
L esp8266-bme280-deepsleep-eagle-import:VCC #SUPPLY010
U 1 1 E89B1DFB
P 9700 2800
F 0 "#SUPPLY010" H 9700 2800 50  0001 C CNN
F 1 "VCC" H 9625 2925 59  0000 L BNN
F 2 "" H 9700 2800 50  0001 C CNN
F 3 "" H 9700 2800 50  0001 C CNN
	1    9700 2800
	0    -1   -1   0   
$EndComp
$Comp
L esp8266-bme280-deepsleep-eagle-import:VCC #SUPPLY011
U 1 1 247CF9B2
P 9700 3500
F 0 "#SUPPLY011" H 9700 3500 50  0001 C CNN
F 1 "VCC" H 9625 3625 59  0000 L BNN
F 2 "" H 9700 3500 50  0001 C CNN
F 3 "" H 9700 3500 50  0001 C CNN
	1    9700 3500
	0    -1   -1   0   
$EndComp
$Comp
L esp8266-bme280-deepsleep-eagle-import:VCC #SUPPLY012
U 1 1 2DC6D685
P 9700 4300
F 0 "#SUPPLY012" H 9700 4300 50  0001 C CNN
F 1 "VCC" H 9625 4425 59  0000 L BNN
F 2 "" H 9700 4300 50  0001 C CNN
F 3 "" H 9700 4300 50  0001 C CNN
	1    9700 4300
	0    -1   -1   0   
$EndComp
$Comp
L esp8266-bme280-deepsleep-eagle-import:R-EU_0204_7 R7
U 1 1 56047C7B
P 4600 2200
F 0 "R7" H 4450 2259 59  0000 L BNN
F 1 "470k" H 4450 2070 59  0000 L BNN
F 2 "esp8266-bme280-deepsleep:0204_7" H 4600 2200 50  0001 C CNN
F 3 "" H 4600 2200 50  0001 C CNN
	1    4600 2200
	0    -1   -1   0   
$EndComp
$Comp
L esp8266-bme280-deepsleep-eagle-import:GND #GND015
U 1 1 37668089
P 4600 3200
F 0 "#GND015" H 4600 3200 50  0001 C CNN
F 1 "GND" H 4500 3100 59  0000 L BNN
F 2 "" H 4600 3200 50  0001 C CNN
F 3 "" H 4600 3200 50  0001 C CNN
	1    4600 3200
	1    0    0    -1  
$EndComp
$Comp
L esp8266-bme280-deepsleep-eagle-import:R-EU_0204_7 R8
U 1 1 6B3D8866
P 4600 2800
F 0 "R8" H 4450 2859 59  0000 L BNN
F 1 "220k" H 4450 2670 59  0000 L BNN
F 2 "esp8266-bme280-deepsleep:0204_7" H 4600 2800 50  0001 C CNN
F 3 "" H 4600 2800 50  0001 C CNN
	1    4600 2800
	0    -1   -1   0   
$EndComp
$Comp
L esp8266-bme280-deepsleep-eagle-import:GND #GND05
U 1 1 6CC61BFB
P 3200 5800
F 0 "#GND05" H 3200 5800 50  0001 C CNN
F 1 "GND" H 3100 5700 59  0000 L BNN
F 2 "" H 3200 5800 50  0001 C CNN
F 3 "" H 3200 5800 50  0001 C CNN
	1    3200 5800
	0    -1   -1   0   
$EndComp
Text Label 2600 5800 0    10   ~ 0
VCC
$Comp
L esp8266-bme280-deepsleep-eagle-import:VCC #SUPPLY05
U 1 1 64E24A77
P 2500 5800
F 0 "#SUPPLY05" H 2500 5800 50  0001 C CNN
F 1 "VCC" H 2425 5925 59  0000 L BNN
F 2 "" H 2500 5800 50  0001 C CNN
F 3 "" H 2500 5800 50  0001 C CNN
	1    2500 5800
	0    -1   -1   0   
$EndComp
Text Label 3000 5800 0    10   ~ 0
GND
Wire Wire Line
	3000 5800 3100 5800
Wire Wire Line
	2600 5800 2700 5800
$Comp
L esp8266-bme280-deepsleep-eagle-import:C2,5-3 C1
U 1 1 E7DFC9C0
P 2800 5800
F 0 "C1" H 2860 5815 59  0000 L BNN
F 1 "100n" H 2860 5615 59  0000 L BNN
F 2 "esp8266-bme280-deepsleep:C2.5-3" H 2800 5800 50  0001 C CNN
F 3 "" H 2800 5800 50  0001 C CNN
	1    2800 5800
	0    -1   -1   0   
$EndComp
$EndSCHEMATC
